<?xml version="1.0" encoding="utf-8" standalone="no"?>
<!DOCTYPE svg PUBLIC "-//W3C//DTD SVG 1.1//EN"
  "http://www.w3.org/Graphics/SVG/1.1/DTD/svg11.dtd">
<svg xmlns:xlink="http://www.w3.org/1999/xlink" width="1332pt" height="703.44pt" viewBox="0 0 1332 703.44" xmlns="http://www.w3.org/2000/svg" version="1.1">
 <metadata>
  <rdf:RDF xmlns:dc="http://purl.org/dc/elements/1.1/" xmlns:cc="http://creativecommons.org/ns#" xmlns:rdf="http://www.w3.org/1999/02/22-rdf-syntax-ns#">
   <cc:Work>
    <dc:type rdf:resource="http://purl.org/dc/dcmitype/StillImage"/>
    <dc:date>2024-04-18T09:38:32.967780</dc:date>
    <dc:format>image/svg+xml</dc:format>
    <dc:creator>
     <cc:Agent>
      <dc:title>Matplotlib v3.8.2, https://matplotlib.org/</dc:title>
     </cc:Agent>
    </dc:creator>
   </cc:Work>
  </rdf:RDF>
 </metadata>
 <defs>
  <style type="text/css">*{stroke-linejoin: round; stroke-linecap: butt}</style>
 </defs>
 <g id="figure_1">
  <g id="patch_1">
   <path d="M 0 703.44 
L 1332 703.44 
L 1332 0 
L 0 0 
z
" style="fill: #ffffff"/>
  </g>
  <g id="axes_1">
   <g id="patch_2">
    <path d="M 166.5 626.0616 
L 1198.8 626.0616 
L 1198.8 84.4128 
L 166.5 84.4128 
z
" style="fill: #ffffff"/>
   </g>
   <g id="matplotlib.axis_1">
    <g id="xtick_1">
     <g id="line2d_1">
      <defs>
       <path id="ma1c4dda420" d="M 0 0 
L 0 3.5 
" style="stroke: #000000; stroke-width: 0.8"/>
      </defs>
      <g>
       <use xlink:href="#ma1c4dda420" x="166.5" y="626.0616" style="stroke: #000000; stroke-width: 0.8"/>
      </g>
     </g>
     <g id="text_1">
      <!-- 0 -->
      <g transform="translate(160.1375 648.258475) scale(0.2 -0.2)">
       <defs>
        <path id="DejaVuSans-30" d="M 2034 4250 
Q 1547 4250 1301 3770 
Q 1056 3291 1056 2328 
Q 1056 1369 1301 889 
Q 1547 409 2034 409 
Q 2525 409 2770 889 
Q 3016 1369 3016 2328 
Q 3016 3291 2770 3770 
Q 2525 4250 2034 4250 
z
M 2034 4750 
Q 2819 4750 3233 4129 
Q 3647 3509 3647 2328 
Q 3647 1150 3233 529 
Q 2819 -91 2034 -91 
Q 1250 -91 836 529 
Q 422 1150 422 2328 
Q 422 3509 836 4129 
Q 1250 4750 2034 4750 
z
" transform="scale(0.015625)"/>
       </defs>
       <use xlink:href="#DejaVuSans-30"/>
      </g>
     </g>
    </g>
    <g id="xtick_2">
     <g id="line2d_2">
      <g>
       <use xlink:href="#ma1c4dda420" x="371.70823" y="626.0616" style="stroke: #000000; stroke-width: 0.8"/>
      </g>
     </g>
     <g id="text_2">
      <!-- 100 -->
      <g transform="translate(352.62073 648.258475) scale(0.2 -0.2)">
       <defs>
        <path id="DejaVuSans-31" d="M 794 531 
L 1825 531 
L 1825 4091 
L 703 3866 
L 703 4441 
L 1819 4666 
L 2450 4666 
L 2450 531 
L 3481 531 
L 3481 0 
L 794 0 
L 794 531 
z
" transform="scale(0.015625)"/>
       </defs>
       <use xlink:href="#DejaVuSans-31"/>
       <use xlink:href="#DejaVuSans-30" x="63.623047"/>
       <use xlink:href="#DejaVuSans-30" x="127.246094"/>
      </g>
     </g>
    </g>
    <g id="xtick_3">
     <g id="line2d_3">
      <g>
       <use xlink:href="#ma1c4dda420" x="576.91646" y="626.0616" style="stroke: #000000; stroke-width: 0.8"/>
      </g>
     </g>
     <g id="text_3">
      <!-- 200 -->
      <g transform="translate(557.82896 648.258475) scale(0.2 -0.2)">
       <defs>
        <path id="DejaVuSans-32" d="M 1228 531 
L 3431 531 
L 3431 0 
L 469 0 
L 469 531 
Q 828 903 1448 1529 
Q 2069 2156 2228 2338 
Q 2531 2678 2651 2914 
Q 2772 3150 2772 3378 
Q 2772 3750 2511 3984 
Q 2250 4219 1831 4219 
Q 1534 4219 1204 4116 
Q 875 4013 500 3803 
L 500 4441 
Q 881 4594 1212 4672 
Q 1544 4750 1819 4750 
Q 2544 4750 2975 4387 
Q 3406 4025 3406 3419 
Q 3406 3131 3298 2873 
Q 3191 2616 2906 2266 
Q 2828 2175 2409 1742 
Q 1991 1309 1228 531 
z
" transform="scale(0.015625)"/>
       </defs>
       <use xlink:href="#DejaVuSans-32"/>
       <use xlink:href="#DejaVuSans-30" x="63.623047"/>
       <use xlink:href="#DejaVuSans-30" x="127.246094"/>
      </g>
     </g>
    </g>
    <g id="xtick_4">
     <g id="line2d_4">
      <g>
       <use xlink:href="#ma1c4dda420" x="782.124689" y="626.0616" style="stroke: #000000; stroke-width: 0.8"/>
      </g>
     </g>
     <g id="text_4">
      <!-- 300 -->
      <g transform="translate(763.037189 648.258475) scale(0.2 -0.2)">
       <defs>
        <path id="DejaVuSans-33" d="M 2597 2516 
Q 3050 2419 3304 2112 
Q 3559 1806 3559 1356 
Q 3559 666 3084 287 
Q 2609 -91 1734 -91 
Q 1441 -91 1130 -33 
Q 819 25 488 141 
L 488 750 
Q 750 597 1062 519 
Q 1375 441 1716 441 
Q 2309 441 2620 675 
Q 2931 909 2931 1356 
Q 2931 1769 2642 2001 
Q 2353 2234 1838 2234 
L 1294 2234 
L 1294 2753 
L 1863 2753 
Q 2328 2753 2575 2939 
Q 2822 3125 2822 3475 
Q 2822 3834 2567 4026 
Q 2313 4219 1838 4219 
Q 1578 4219 1281 4162 
Q 984 4106 628 3988 
L 628 4550 
Q 988 4650 1302 4700 
Q 1616 4750 1894 4750 
Q 2613 4750 3031 4423 
Q 3450 4097 3450 3541 
Q 3450 3153 3228 2886 
Q 3006 2619 2597 2516 
z
" transform="scale(0.015625)"/>
       </defs>
       <use xlink:href="#DejaVuSans-33"/>
       <use xlink:href="#DejaVuSans-30" x="63.623047"/>
       <use xlink:href="#DejaVuSans-30" x="127.246094"/>
      </g>
     </g>
    </g>
    <g id="xtick_5">
     <g id="line2d_5">
      <g>
       <use xlink:href="#ma1c4dda420" x="987.332919" y="626.0616" style="stroke: #000000; stroke-width: 0.8"/>
      </g>
     </g>
     <g id="text_5">
      <!-- 400 -->
      <g transform="translate(968.245419 648.258475) scale(0.2 -0.2)">
       <defs>
        <path id="DejaVuSans-34" d="M 2419 4116 
L 825 1625 
L 2419 1625 
L 2419 4116 
z
M 2253 4666 
L 3047 4666 
L 3047 1625 
L 3713 1625 
L 3713 1100 
L 3047 1100 
L 3047 0 
L 2419 0 
L 2419 1100 
L 313 1100 
L 313 1709 
L 2253 4666 
z
" transform="scale(0.015625)"/>
       </defs>
       <use xlink:href="#DejaVuSans-34"/>
       <use xlink:href="#DejaVuSans-30" x="63.623047"/>
       <use xlink:href="#DejaVuSans-30" x="127.246094"/>
      </g>
     </g>
    </g>
    <g id="xtick_6">
     <g id="line2d_6">
      <g>
       <use xlink:href="#ma1c4dda420" x="1192.541149" y="626.0616" style="stroke: #000000; stroke-width: 0.8"/>
      </g>
     </g>
     <g id="text_6">
      <!-- 500 -->
      <g transform="translate(1173.453649 648.258475) scale(0.2 -0.2)">
       <defs>
        <path id="DejaVuSans-35" d="M 691 4666 
L 3169 4666 
L 3169 4134 
L 1269 4134 
L 1269 2991 
Q 1406 3038 1543 3061 
Q 1681 3084 1819 3084 
Q 2600 3084 3056 2656 
Q 3513 2228 3513 1497 
Q 3513 744 3044 326 
Q 2575 -91 1722 -91 
Q 1428 -91 1123 -41 
Q 819 9 494 109 
L 494 744 
Q 775 591 1075 516 
Q 1375 441 1709 441 
Q 2250 441 2565 725 
Q 2881 1009 2881 1497 
Q 2881 1984 2565 2268 
Q 2250 2553 1709 2553 
Q 1456 2553 1204 2497 
Q 953 2441 691 2322 
L 691 4666 
z
" transform="scale(0.015625)"/>
       </defs>
       <use xlink:href="#DejaVuSans-35"/>
       <use xlink:href="#DejaVuSans-30" x="63.623047"/>
       <use xlink:href="#DejaVuSans-30" x="127.246094"/>
      </g>
     </g>
    </g>
    <g id="text_7">
     <!-- Write-to-receive latency [us] -->
     <g transform="translate(539.826562 671.614725) scale(0.2 -0.2)">
      <defs>
       <path id="DejaVuSans-57" d="M 213 4666 
L 850 4666 
L 1831 722 
L 2809 4666 
L 3519 4666 
L 4500 722 
L 5478 4666 
L 6119 4666 
L 4947 0 
L 4153 0 
L 3169 4050 
L 2175 0 
L 1381 0 
L 213 4666 
z
" transform="scale(0.015625)"/>
       <path id="DejaVuSans-72" d="M 2631 2963 
Q 2534 3019 2420 3045 
Q 2306 3072 2169 3072 
Q 1681 3072 1420 2755 
Q 1159 2438 1159 1844 
L 1159 0 
L 581 0 
L 581 3500 
L 1159 3500 
L 1159 2956 
Q 1341 3275 1631 3429 
Q 1922 3584 2338 3584 
Q 2397 3584 2469 3576 
Q 2541 3569 2628 3553 
L 2631 2963 
z
" transform="scale(0.015625)"/>
       <path id="DejaVuSans-69" d="M 603 3500 
L 1178 3500 
L 1178 0 
L 603 0 
L 603 3500 
z
M 603 4863 
L 1178 4863 
L 1178 4134 
L 603 4134 
L 603 4863 
z
" transform="scale(0.015625)"/>
       <path id="DejaVuSans-74" d="M 1172 4494 
L 1172 3500 
L 2356 3500 
L 2356 3053 
L 1172 3053 
L 1172 1153 
Q 1172 725 1289 603 
Q 1406 481 1766 481 
L 2356 481 
L 2356 0 
L 1766 0 
Q 1100 0 847 248 
Q 594 497 594 1153 
L 594 3053 
L 172 3053 
L 172 3500 
L 594 3500 
L 594 4494 
L 1172 4494 
z
" transform="scale(0.015625)"/>
       <path id="DejaVuSans-65" d="M 3597 1894 
L 3597 1613 
L 953 1613 
Q 991 1019 1311 708 
Q 1631 397 2203 397 
Q 2534 397 2845 478 
Q 3156 559 3463 722 
L 3463 178 
Q 3153 47 2828 -22 
Q 2503 -91 2169 -91 
Q 1331 -91 842 396 
Q 353 884 353 1716 
Q 353 2575 817 3079 
Q 1281 3584 2069 3584 
Q 2775 3584 3186 3129 
Q 3597 2675 3597 1894 
z
M 3022 2063 
Q 3016 2534 2758 2815 
Q 2500 3097 2075 3097 
Q 1594 3097 1305 2825 
Q 1016 2553 972 2059 
L 3022 2063 
z
" transform="scale(0.015625)"/>
       <path id="DejaVuSans-2d" d="M 313 2009 
L 1997 2009 
L 1997 1497 
L 313 1497 
L 313 2009 
z
" transform="scale(0.015625)"/>
       <path id="DejaVuSans-6f" d="M 1959 3097 
Q 1497 3097 1228 2736 
Q 959 2375 959 1747 
Q 959 1119 1226 758 
Q 1494 397 1959 397 
Q 2419 397 2687 759 
Q 2956 1122 2956 1747 
Q 2956 2369 2687 2733 
Q 2419 3097 1959 3097 
z
M 1959 3584 
Q 2709 3584 3137 3096 
Q 3566 2609 3566 1747 
Q 3566 888 3137 398 
Q 2709 -91 1959 -91 
Q 1206 -91 779 398 
Q 353 888 353 1747 
Q 353 2609 779 3096 
Q 1206 3584 1959 3584 
z
" transform="scale(0.015625)"/>
       <path id="DejaVuSans-63" d="M 3122 3366 
L 3122 2828 
Q 2878 2963 2633 3030 
Q 2388 3097 2138 3097 
Q 1578 3097 1268 2742 
Q 959 2388 959 1747 
Q 959 1106 1268 751 
Q 1578 397 2138 397 
Q 2388 397 2633 464 
Q 2878 531 3122 666 
L 3122 134 
Q 2881 22 2623 -34 
Q 2366 -91 2075 -91 
Q 1284 -91 818 406 
Q 353 903 353 1747 
Q 353 2603 823 3093 
Q 1294 3584 2113 3584 
Q 2378 3584 2631 3529 
Q 2884 3475 3122 3366 
z
" transform="scale(0.015625)"/>
       <path id="DejaVuSans-76" d="M 191 3500 
L 800 3500 
L 1894 563 
L 2988 3500 
L 3597 3500 
L 2284 0 
L 1503 0 
L 191 3500 
z
" transform="scale(0.015625)"/>
       <path id="DejaVuSans-20" transform="scale(0.015625)"/>
       <path id="DejaVuSans-6c" d="M 603 4863 
L 1178 4863 
L 1178 0 
L 603 0 
L 603 4863 
z
" transform="scale(0.015625)"/>
       <path id="DejaVuSans-61" d="M 2194 1759 
Q 1497 1759 1228 1600 
Q 959 1441 959 1056 
Q 959 750 1161 570 
Q 1363 391 1709 391 
Q 2188 391 2477 730 
Q 2766 1069 2766 1631 
L 2766 1759 
L 2194 1759 
z
M 3341 1997 
L 3341 0 
L 2766 0 
L 2766 531 
Q 2569 213 2275 61 
Q 1981 -91 1556 -91 
Q 1019 -91 701 211 
Q 384 513 384 1019 
Q 384 1609 779 1909 
Q 1175 2209 1959 2209 
L 2766 2209 
L 2766 2266 
Q 2766 2663 2505 2880 
Q 2244 3097 1772 3097 
Q 1472 3097 1187 3025 
Q 903 2953 641 2809 
L 641 3341 
Q 956 3463 1253 3523 
Q 1550 3584 1831 3584 
Q 2591 3584 2966 3190 
Q 3341 2797 3341 1997 
z
" transform="scale(0.015625)"/>
       <path id="DejaVuSans-6e" d="M 3513 2113 
L 3513 0 
L 2938 0 
L 2938 2094 
Q 2938 2591 2744 2837 
Q 2550 3084 2163 3084 
Q 1697 3084 1428 2787 
Q 1159 2491 1159 1978 
L 1159 0 
L 581 0 
L 581 3500 
L 1159 3500 
L 1159 2956 
Q 1366 3272 1645 3428 
Q 1925 3584 2291 3584 
Q 2894 3584 3203 3211 
Q 3513 2838 3513 2113 
z
" transform="scale(0.015625)"/>
       <path id="DejaVuSans-79" d="M 2059 -325 
Q 1816 -950 1584 -1140 
Q 1353 -1331 966 -1331 
L 506 -1331 
L 506 -850 
L 844 -850 
Q 1081 -850 1212 -737 
Q 1344 -625 1503 -206 
L 1606 56 
L 191 3500 
L 800 3500 
L 1894 763 
L 2988 3500 
L 3597 3500 
L 2059 -325 
z
" transform="scale(0.015625)"/>
       <path id="DejaVuSans-5b" d="M 550 4863 
L 1875 4863 
L 1875 4416 
L 1125 4416 
L 1125 -397 
L 1875 -397 
L 1875 -844 
L 550 -844 
L 550 4863 
z
" transform="scale(0.015625)"/>
       <path id="DejaVuSans-75" d="M 544 1381 
L 544 3500 
L 1119 3500 
L 1119 1403 
Q 1119 906 1312 657 
Q 1506 409 1894 409 
Q 2359 409 2629 706 
Q 2900 1003 2900 1516 
L 2900 3500 
L 3475 3500 
L 3475 0 
L 2900 0 
L 2900 538 
Q 2691 219 2414 64 
Q 2138 -91 1772 -91 
Q 1169 -91 856 284 
Q 544 659 544 1381 
z
M 1991 3584 
L 1991 3584 
z
" transform="scale(0.015625)"/>
       <path id="DejaVuSans-73" d="M 2834 3397 
L 2834 2853 
Q 2591 2978 2328 3040 
Q 2066 3103 1784 3103 
Q 1356 3103 1142 2972 
Q 928 2841 928 2578 
Q 928 2378 1081 2264 
Q 1234 2150 1697 2047 
L 1894 2003 
Q 2506 1872 2764 1633 
Q 3022 1394 3022 966 
Q 3022 478 2636 193 
Q 2250 -91 1575 -91 
Q 1294 -91 989 -36 
Q 684 19 347 128 
L 347 722 
Q 666 556 975 473 
Q 1284 391 1588 391 
Q 1994 391 2212 530 
Q 2431 669 2431 922 
Q 2431 1156 2273 1281 
Q 2116 1406 1581 1522 
L 1381 1569 
Q 847 1681 609 1914 
Q 372 2147 372 2553 
Q 372 3047 722 3315 
Q 1072 3584 1716 3584 
Q 2034 3584 2315 3537 
Q 2597 3491 2834 3397 
z
" transform="scale(0.015625)"/>
       <path id="DejaVuSans-5d" d="M 1947 4863 
L 1947 -844 
L 622 -844 
L 622 -397 
L 1369 -397 
L 1369 4416 
L 622 4416 
L 622 4863 
L 1947 4863 
z
" transform="scale(0.015625)"/>
      </defs>
      <use xlink:href="#DejaVuSans-57"/>
      <use xlink:href="#DejaVuSans-72" x="94.376953"/>
      <use xlink:href="#DejaVuSans-69" x="135.490234"/>
      <use xlink:href="#DejaVuSans-74" x="163.273438"/>
      <use xlink:href="#DejaVuSans-65" x="202.482422"/>
      <use xlink:href="#DejaVuSans-2d" x="264.005859"/>
      <use xlink:href="#DejaVuSans-74" x="300.089844"/>
      <use xlink:href="#DejaVuSans-6f" x="339.298828"/>
      <use xlink:href="#DejaVuSans-2d" x="402.355469"/>
      <use xlink:href="#DejaVuSans-72" x="438.439453"/>
      <use xlink:href="#DejaVuSans-65" x="477.302734"/>
      <use xlink:href="#DejaVuSans-63" x="538.826172"/>
      <use xlink:href="#DejaVuSans-65" x="593.806641"/>
      <use xlink:href="#DejaVuSans-69" x="655.330078"/>
      <use xlink:href="#DejaVuSans-76" x="683.113281"/>
      <use xlink:href="#DejaVuSans-65" x="742.292969"/>
      <use xlink:href="#DejaVuSans-20" x="803.816406"/>
      <use xlink:href="#DejaVuSans-6c" x="835.603516"/>
      <use xlink:href="#DejaVuSans-61" x="863.386719"/>
      <use xlink:href="#DejaVuSans-74" x="924.666016"/>
      <use xlink:href="#DejaVuSans-65" x="963.875"/>
      <use xlink:href="#DejaVuSans-6e" x="1025.398438"/>
      <use xlink:href="#DejaVuSans-63" x="1088.777344"/>
      <use xlink:href="#DejaVuSans-79" x="1143.757812"/>
      <use xlink:href="#DejaVuSans-20" x="1202.9375"/>
      <use xlink:href="#DejaVuSans-5b" x="1234.724609"/>
      <use xlink:href="#DejaVuSans-75" x="1273.738281"/>
      <use xlink:href="#DejaVuSans-73" x="1337.117188"/>
      <use xlink:href="#DejaVuSans-5d" x="1389.216797"/>
     </g>
    </g>
   </g>
   <g id="matplotlib.axis_2">
    <g id="ytick_1">
     <g id="line2d_7">
      <defs>
       <path id="m6aa0cbd81f" d="M 0 0 
L -3.5 0 
" style="stroke: #000000; stroke-width: 0.8"/>
      </defs>
      <g>
       <use xlink:href="#m6aa0cbd81f" x="166.5" y="601.4412" style="stroke: #000000; stroke-width: 0.8"/>
      </g>
     </g>
     <g id="text_8">
      <!-- $\mathdefault{10^{0}}$ -->
      <g transform="translate(124.3 609.039637) scale(0.2 -0.2)">
       <use xlink:href="#DejaVuSans-31" transform="translate(0 0.765625)"/>
       <use xlink:href="#DejaVuSans-30" transform="translate(63.623047 0.765625)"/>
       <use xlink:href="#DejaVuSans-30" transform="translate(128.203125 39.046875) scale(0.7)"/>
      </g>
     </g>
    </g>
    <g id="ytick_2">
     <g id="line2d_8">
      <g>
       <use xlink:href="#m6aa0cbd81f" x="166.5" y="456.527517" style="stroke: #000000; stroke-width: 0.8"/>
      </g>
     </g>
     <g id="text_9">
      <!-- $\mathdefault{10^{1}}$ -->
      <g transform="translate(124.3 464.125955) scale(0.2 -0.2)">
       <use xlink:href="#DejaVuSans-31" transform="translate(0 0.684375)"/>
       <use xlink:href="#DejaVuSans-30" transform="translate(63.623047 0.684375)"/>
       <use xlink:href="#DejaVuSans-31" transform="translate(128.203125 38.965625) scale(0.7)"/>
      </g>
     </g>
    </g>
    <g id="ytick_3">
     <g id="line2d_9">
      <g>
       <use xlink:href="#m6aa0cbd81f" x="166.5" y="311.613835" style="stroke: #000000; stroke-width: 0.8"/>
      </g>
     </g>
     <g id="text_10">
      <!-- $\mathdefault{10^{2}}$ -->
      <g transform="translate(124.3 319.212272) scale(0.2 -0.2)">
       <use xlink:href="#DejaVuSans-31" transform="translate(0 0.765625)"/>
       <use xlink:href="#DejaVuSans-30" transform="translate(63.623047 0.765625)"/>
       <use xlink:href="#DejaVuSans-32" transform="translate(128.203125 39.046875) scale(0.7)"/>
      </g>
     </g>
    </g>
    <g id="ytick_4">
     <g id="line2d_10">
      <g>
       <use xlink:href="#m6aa0cbd81f" x="166.5" y="166.700152" style="stroke: #000000; stroke-width: 0.8"/>
      </g>
     </g>
     <g id="text_11">
      <!-- $\mathdefault{10^{3}}$ -->
      <g transform="translate(124.3 174.29859) scale(0.2 -0.2)">
       <use xlink:href="#DejaVuSans-31" transform="translate(0 0.765625)"/>
       <use xlink:href="#DejaVuSans-30" transform="translate(63.623047 0.765625)"/>
       <use xlink:href="#DejaVuSans-33" transform="translate(128.203125 39.046875) scale(0.7)"/>
      </g>
     </g>
    </g>
    <g id="ytick_5">
     <g id="line2d_11">
      <defs>
       <path id="m5a3ad00e72" d="M 0 0 
L -2 0 
" style="stroke: #000000; stroke-width: 0.6"/>
      </defs>
      <g>
       <use xlink:href="#m5a3ad00e72" x="166.5" y="623.888613" style="stroke: #000000; stroke-width: 0.6"/>
      </g>
     </g>
    </g>
    <g id="ytick_6">
     <g id="line2d_12">
      <g>
       <use xlink:href="#m5a3ad00e72" x="166.5" y="615.484787" style="stroke: #000000; stroke-width: 0.6"/>
      </g>
     </g>
    </g>
    <g id="ytick_7">
     <g id="line2d_13">
      <g>
       <use xlink:href="#m5a3ad00e72" x="166.5" y="608.072086" style="stroke: #000000; stroke-width: 0.6"/>
      </g>
     </g>
    </g>
    <g id="ytick_8">
     <g id="line2d_14">
      <g>
       <use xlink:href="#m5a3ad00e72" x="166.5" y="557.817835" style="stroke: #000000; stroke-width: 0.6"/>
      </g>
     </g>
    </g>
    <g id="ytick_9">
     <g id="line2d_15">
      <g>
       <use xlink:href="#m5a3ad00e72" x="166.5" y="532.299802" style="stroke: #000000; stroke-width: 0.6"/>
      </g>
     </g>
    </g>
    <g id="ytick_10">
     <g id="line2d_16">
      <g>
       <use xlink:href="#m5a3ad00e72" x="166.5" y="514.194469" style="stroke: #000000; stroke-width: 0.6"/>
      </g>
     </g>
    </g>
    <g id="ytick_11">
     <g id="line2d_17">
      <g>
       <use xlink:href="#m5a3ad00e72" x="166.5" y="500.150883" style="stroke: #000000; stroke-width: 0.6"/>
      </g>
     </g>
    </g>
    <g id="ytick_12">
     <g id="line2d_18">
      <g>
       <use xlink:href="#m5a3ad00e72" x="166.5" y="488.676437" style="stroke: #000000; stroke-width: 0.6"/>
      </g>
     </g>
    </g>
    <g id="ytick_13">
     <g id="line2d_19">
      <g>
       <use xlink:href="#m5a3ad00e72" x="166.5" y="478.974931" style="stroke: #000000; stroke-width: 0.6"/>
      </g>
     </g>
    </g>
    <g id="ytick_14">
     <g id="line2d_20">
      <g>
       <use xlink:href="#m5a3ad00e72" x="166.5" y="470.571104" style="stroke: #000000; stroke-width: 0.6"/>
      </g>
     </g>
    </g>
    <g id="ytick_15">
     <g id="line2d_21">
      <g>
       <use xlink:href="#m5a3ad00e72" x="166.5" y="463.158404" style="stroke: #000000; stroke-width: 0.6"/>
      </g>
     </g>
    </g>
    <g id="ytick_16">
     <g id="line2d_22">
      <g>
       <use xlink:href="#m5a3ad00e72" x="166.5" y="412.904152" style="stroke: #000000; stroke-width: 0.6"/>
      </g>
     </g>
    </g>
    <g id="ytick_17">
     <g id="line2d_23">
      <g>
       <use xlink:href="#m5a3ad00e72" x="166.5" y="387.386119" style="stroke: #000000; stroke-width: 0.6"/>
      </g>
     </g>
    </g>
    <g id="ytick_18">
     <g id="line2d_24">
      <g>
       <use xlink:href="#m5a3ad00e72" x="166.5" y="369.280787" style="stroke: #000000; stroke-width: 0.6"/>
      </g>
     </g>
    </g>
    <g id="ytick_19">
     <g id="line2d_25">
      <g>
       <use xlink:href="#m5a3ad00e72" x="166.5" y="355.2372" style="stroke: #000000; stroke-width: 0.6"/>
      </g>
     </g>
    </g>
    <g id="ytick_20">
     <g id="line2d_26">
      <g>
       <use xlink:href="#m5a3ad00e72" x="166.5" y="343.762754" style="stroke: #000000; stroke-width: 0.6"/>
      </g>
     </g>
    </g>
    <g id="ytick_21">
     <g id="line2d_27">
      <g>
       <use xlink:href="#m5a3ad00e72" x="166.5" y="334.061248" style="stroke: #000000; stroke-width: 0.6"/>
      </g>
     </g>
    </g>
    <g id="ytick_22">
     <g id="line2d_28">
      <g>
       <use xlink:href="#m5a3ad00e72" x="166.5" y="325.657422" style="stroke: #000000; stroke-width: 0.6"/>
      </g>
     </g>
    </g>
    <g id="ytick_23">
     <g id="line2d_29">
      <g>
       <use xlink:href="#m5a3ad00e72" x="166.5" y="318.244721" style="stroke: #000000; stroke-width: 0.6"/>
      </g>
     </g>
    </g>
    <g id="ytick_24">
     <g id="line2d_30">
      <g>
       <use xlink:href="#m5a3ad00e72" x="166.5" y="267.990469" style="stroke: #000000; stroke-width: 0.6"/>
      </g>
     </g>
    </g>
    <g id="ytick_25">
     <g id="line2d_31">
      <g>
       <use xlink:href="#m5a3ad00e72" x="166.5" y="242.472437" style="stroke: #000000; stroke-width: 0.6"/>
      </g>
     </g>
    </g>
    <g id="ytick_26">
     <g id="line2d_32">
      <g>
       <use xlink:href="#m5a3ad00e72" x="166.5" y="224.367104" style="stroke: #000000; stroke-width: 0.6"/>
      </g>
     </g>
    </g>
    <g id="ytick_27">
     <g id="line2d_33">
      <g>
       <use xlink:href="#m5a3ad00e72" x="166.5" y="210.323517" style="stroke: #000000; stroke-width: 0.6"/>
      </g>
     </g>
    </g>
    <g id="ytick_28">
     <g id="line2d_34">
      <g>
       <use xlink:href="#m5a3ad00e72" x="166.5" y="198.849071" style="stroke: #000000; stroke-width: 0.6"/>
      </g>
     </g>
    </g>
    <g id="ytick_29">
     <g id="line2d_35">
      <g>
       <use xlink:href="#m5a3ad00e72" x="166.5" y="189.147566" style="stroke: #000000; stroke-width: 0.6"/>
      </g>
     </g>
    </g>
    <g id="ytick_30">
     <g id="line2d_36">
      <g>
       <use xlink:href="#m5a3ad00e72" x="166.5" y="180.743739" style="stroke: #000000; stroke-width: 0.6"/>
      </g>
     </g>
    </g>
    <g id="ytick_31">
     <g id="line2d_37">
      <g>
       <use xlink:href="#m5a3ad00e72" x="166.5" y="173.331039" style="stroke: #000000; stroke-width: 0.6"/>
      </g>
     </g>
    </g>
    <g id="ytick_32">
     <g id="line2d_38">
      <g>
       <use xlink:href="#m5a3ad00e72" x="166.5" y="123.076787" style="stroke: #000000; stroke-width: 0.6"/>
      </g>
     </g>
    </g>
    <g id="ytick_33">
     <g id="line2d_39">
      <g>
       <use xlink:href="#m5a3ad00e72" x="166.5" y="97.558754" style="stroke: #000000; stroke-width: 0.6"/>
      </g>
     </g>
    </g>
    <g id="text_12">
     <!-- Message Count -->
     <g transform="translate(116.140625 431.941887) rotate(-90) scale(0.2 -0.2)">
      <defs>
       <path id="DejaVuSans-4d" d="M 628 4666 
L 1569 4666 
L 2759 1491 
L 3956 4666 
L 4897 4666 
L 4897 0 
L 4281 0 
L 4281 4097 
L 3078 897 
L 2444 897 
L 1241 4097 
L 1241 0 
L 628 0 
L 628 4666 
z
" transform="scale(0.015625)"/>
       <path id="DejaVuSans-67" d="M 2906 1791 
Q 2906 2416 2648 2759 
Q 2391 3103 1925 3103 
Q 1463 3103 1205 2759 
Q 947 2416 947 1791 
Q 947 1169 1205 825 
Q 1463 481 1925 481 
Q 2391 481 2648 825 
Q 2906 1169 2906 1791 
z
M 3481 434 
Q 3481 -459 3084 -895 
Q 2688 -1331 1869 -1331 
Q 1566 -1331 1297 -1286 
Q 1028 -1241 775 -1147 
L 775 -588 
Q 1028 -725 1275 -790 
Q 1522 -856 1778 -856 
Q 2344 -856 2625 -561 
Q 2906 -266 2906 331 
L 2906 616 
Q 2728 306 2450 153 
Q 2172 0 1784 0 
Q 1141 0 747 490 
Q 353 981 353 1791 
Q 353 2603 747 3093 
Q 1141 3584 1784 3584 
Q 2172 3584 2450 3431 
Q 2728 3278 2906 2969 
L 2906 3500 
L 3481 3500 
L 3481 434 
z
" transform="scale(0.015625)"/>
       <path id="DejaVuSans-43" d="M 4122 4306 
L 4122 3641 
Q 3803 3938 3442 4084 
Q 3081 4231 2675 4231 
Q 1875 4231 1450 3742 
Q 1025 3253 1025 2328 
Q 1025 1406 1450 917 
Q 1875 428 2675 428 
Q 3081 428 3442 575 
Q 3803 722 4122 1019 
L 4122 359 
Q 3791 134 3420 21 
Q 3050 -91 2638 -91 
Q 1578 -91 968 557 
Q 359 1206 359 2328 
Q 359 3453 968 4101 
Q 1578 4750 2638 4750 
Q 3056 4750 3426 4639 
Q 3797 4528 4122 4306 
z
" transform="scale(0.015625)"/>
      </defs>
      <use xlink:href="#DejaVuSans-4d"/>
      <use xlink:href="#DejaVuSans-65" x="86.279297"/>
      <use xlink:href="#DejaVuSans-73" x="147.802734"/>
      <use xlink:href="#DejaVuSans-73" x="199.902344"/>
      <use xlink:href="#DejaVuSans-61" x="252.001953"/>
      <use xlink:href="#DejaVuSans-67" x="313.28125"/>
      <use xlink:href="#DejaVuSans-65" x="376.757812"/>
      <use xlink:href="#DejaVuSans-20" x="438.28125"/>
      <use xlink:href="#DejaVuSans-43" x="470.068359"/>
      <use xlink:href="#DejaVuSans-6f" x="539.892578"/>
      <use xlink:href="#DejaVuSans-75" x="601.074219"/>
      <use xlink:href="#DejaVuSans-6e" x="664.453125"/>
      <use xlink:href="#DejaVuSans-74" x="727.832031"/>
     </g>
    </g>
   </g>
   <g id="line2d_40">
    <path d="M 205.489564 109.058379 
L 207.541646 109.487973 
L 209.593728 109.894992 
L 211.645811 110.484734 
L 213.697893 111.028063 
L 215.749975 111.576123 
L 217.802057 112.287859 
L 219.85414 113.007736 
L 221.906222 113.519298 
L 223.958304 113.953335 
L 226.010387 114.527591 
L 228.062469 115.024015 
L 230.114551 115.552301 
L 232.166634 116.056907 
L 234.218716 116.565591 
L 236.270798 117.1643 
L 238.32288 117.653175 
L 240.374963 118.174981 
L 242.427045 118.496005 
L 244.479127 119.409621 
L 246.53121 119.886405 
L 248.583292 120.457318 
L 250.635374 120.88133 
L 252.687457 121.461382 
L 254.739539 122.139769 
L 256.791621 123.108262 
L 258.843703 123.709307 
L 260.895786 124.412501 
L 262.947868 125.123641 
L 264.99995 125.744341 
L 267.052033 126.371224 
L 269.104115 126.637054 
L 271.156197 127.475085 
L 273.208279 128.085453 
L 275.260362 128.770655 
L 277.312444 129.567972 
L 279.364526 130.234331 
L 281.416609 130.765433 
L 283.468691 131.408729 
L 285.520773 132.276814 
L 287.572856 133.009479 
L 289.624938 133.527467 
L 291.67702 134.312532 
L 293.729102 134.6142 
L 295.781185 135.527975 
L 297.833267 136.416306 
L 299.885349 137.277909 
L 301.937432 138.031633 
L 303.989514 138.794493 
L 306.041596 139.730501 
L 308.093679 140.805636 
L 310.145761 142.0269 
L 312.197843 143.142345 
L 314.249925 143.882512 
L 316.302008 144.942499 
L 318.35409 145.704273 
L 320.406172 146.293091 
L 322.458255 147.256053 
L 324.510337 148.187065 
L 326.562419 149.084467 
L 328.614502 149.946607 
L 330.666584 151.016629 
L 332.718666 151.905838 
L 334.770748 153.009993 
L 336.822831 153.876672 
L 338.874913 154.911814 
L 340.926995 156.443674 
L 342.979078 158.013752 
L 345.03116 161.914893 
L 347.083242 167.843305 
L 349.135325 176.928316 
L 351.187407 182.337121 
L 353.239489 183.971893 
L 355.291571 184.554246 
L 357.343654 184.637881 
L 359.395736 184.805485 
L 361.447818 185.905927 
L 363.499901 194.102709 
L 365.551983 208.830913 
L 367.604065 223.58529 
L 369.656148 230.823413 
L 371.70823 235.340072 
L 373.760312 235.904517 
L 375.812394 236.283646 
L 377.864477 236.47407 
L 427.114452 238.410691 
L 429.166534 241.432162 
L 431.218616 244.823431 
L 433.270699 248.407899 
L 435.322781 254.199128 
L 437.374863 261.992103 
L 439.426946 271.218624 
L 441.479028 278.218633 
L 443.53111 283.627438 
L 445.583193 291.343441 
L 447.635275 302.817887 
L 449.687357 318.947915 
L 451.739439 335.885585 
L 453.791522 356.508662 
L 455.843604 391.7282 
L 457.895686 456.527517 
L 459.947769 532.299802 
L 461.999851 557.817835 
L 464.051933 601.4412 
L 464.053392 704.44 
" clip-path="url(#p676f65e772)" style="fill: none; stroke: #1f77b4; stroke-width: 5; stroke-linecap: square"/>
   </g>
   <g id="line2d_41">
    <path d="M 359.395736 109.108768 
L 361.447818 109.538706 
L 363.499901 110.176353 
L 365.551983 111.288449 
L 367.604065 111.99692 
L 369.656148 112.36744 
L 371.70823 112.686774 
L 373.760312 112.793579 
L 375.812394 112.820309 
L 420.958205 112.927342 
L 423.010287 113.222624 
L 425.06237 113.519298 
L 427.114452 113.92612 
L 429.166534 114.555067 
L 431.218616 115.024015 
L 433.270699 115.636121 
L 435.322781 116.395572 
L 437.374863 116.821483 
L 439.426946 117.278988 
L 441.479028 117.71094 
L 443.53111 118.320698 
L 445.583193 118.848091 
L 447.635275 119.202158 
L 449.687357 120.096139 
L 451.739439 120.517716 
L 453.791522 121.094412 
L 455.843604 121.522752 
L 457.895686 122.32606 
L 459.947769 123.297446 
L 461.999851 123.836577 
L 464.051933 124.541203 
L 466.104016 125.156157 
L 468.156098 125.974572 
L 470.20818 126.503999 
L 472.260262 126.80377 
L 474.312345 127.441349 
L 476.364427 128.187759 
L 478.416509 128.770655 
L 480.468592 129.393781 
L 482.520674 130.023139 
L 484.572756 130.90782 
L 486.624838 131.588595 
L 488.676921 132.276814 
L 490.729003 132.862262 
L 492.781085 133.453208 
L 494.833168 134.274925 
L 496.88525 135.069429 
L 498.937332 135.83554 
L 500.989415 136.494148 
L 503.041497 137.238488 
L 505.093579 137.951867 
L 507.145661 138.713755 
L 509.197744 139.894716 
L 511.249826 141.182119 
L 513.301908 141.984391 
L 515.353991 142.926296 
L 517.406073 144.14584 
L 519.458155 144.987054 
L 521.510238 145.659206 
L 523.56232 146.38417 
L 525.614402 147.163705 
L 527.666484 148.093341 
L 529.718567 149.17968 
L 531.770649 150.043134 
L 533.822731 151.163961 
L 535.874814 152.255063 
L 537.926896 153.365417 
L 539.978978 154.34038 
L 542.031061 155.278174 
L 544.083143 157.088618 
L 546.135225 159.231534 
L 548.187307 162.442041 
L 550.23939 169.20377 
L 552.291472 174.246732 
L 554.343554 179.961925 
L 556.395637 182.823109 
L 558.447719 184.304006 
L 560.499801 184.637881 
L 562.551884 186.162631 
L 564.603966 189.780086 
L 566.656048 196.988782 
L 568.70813 207.855153 
L 570.760213 218.511935 
L 572.812295 229.443956 
L 574.864377 237.823422 
L 576.91646 242.682571 
L 578.968542 246.59015 
L 581.020624 250.756501 
L 583.072706 254.706673 
L 585.124789 258.109405 
L 587.176871 259.744178 
L 589.228953 260.858105 
L 591.281036 261.992103 
L 593.333118 265.220257 
L 595.3852 273.238109 
L 597.437283 278.589933 
L 599.489365 284.032167 
L 601.541447 292.26222 
L 603.593529 300.666046 
L 605.645612 314.841989 
L 607.697694 340.692135 
L 609.749776 359.131342 
L 611.801859 383.324374 
L 613.853941 435.351566 
L 615.906023 463.158404 
L 617.958106 601.4412 
L 617.959564 704.44 
" clip-path="url(#p676f65e772)" style="fill: none; stroke: #ff7f0e; stroke-width: 5; stroke-linecap: square"/>
   </g>
   <g id="line2d_42">
    <path d="M 556.395637 109.058379 
L 558.447719 109.108768 
L 560.499801 109.209666 
L 562.551884 109.487973 
L 564.603966 109.767516 
L 566.656048 110.330355 
L 568.70813 111.106066 
L 570.760213 111.99692 
L 572.812295 112.820309 
L 574.864377 113.519298 
L 576.91646 114.116874 
L 578.968542 114.637569 
L 581.020624 114.885726 
L 583.072706 114.941005 
L 585.124789 115.162608 
L 587.176871 115.412848 
L 589.228953 115.636121 
L 591.281036 115.972524 
L 593.333118 116.226012 
L 595.3852 116.707625 
L 597.437283 117.307693 
L 599.489365 118.0296 
L 601.541447 118.55455 
L 603.593529 119.172576 
L 605.645612 119.796732 
L 607.697694 120.608423 
L 609.749776 121.308217 
L 611.801859 122.04683 
L 613.853941 123.329033 
L 615.906023 123.900309 
L 617.958106 124.702451 
L 620.010188 124.896496 
L 622.06227 125.156157 
L 624.114352 125.28639 
L 626.166435 125.318991 
L 669.260163 125.449562 
L 671.312245 125.842908 
L 673.364328 126.404391 
L 675.41641 126.670362 
L 677.468492 127.205699 
L 679.520574 127.881339 
L 681.572657 128.392871 
L 683.624739 128.839588 
L 685.676821 129.498238 
L 687.728904 130.446234 
L 689.780986 131.301055 
L 691.833068 131.841275 
L 693.885151 132.386172 
L 695.937233 132.972643 
L 697.989315 133.862725 
L 700.041397 134.689843 
L 702.09348 135.451319 
L 704.145562 136.222121 
L 706.197644 136.845633 
L 708.249727 137.396319 
L 710.301809 138.351711 
L 712.353891 139.362578 
L 714.405974 140.389947 
L 716.458056 141.350171 
L 718.510138 142.325273 
L 720.56222 143.533114 
L 722.614303 144.189835 
L 724.666385 145.210308 
L 726.718467 145.93009 
L 728.77055 146.658199 
L 730.822632 147.487518 
L 732.874714 148.327912 
L 734.926797 149.17968 
L 736.978879 150.236632 
L 739.030961 151.657573 
L 741.083043 152.455494 
L 743.135126 153.774088 
L 745.187208 154.755453 
L 747.23929 156.176886 
L 749.291373 158.288459 
L 751.343455 161.161169 
L 753.395537 164.962186 
L 755.44762 169.795951 
L 757.499702 175.609485 
L 759.551784 179.420377 
L 761.603866 182.417859 
L 763.655949 184.387309 
L 765.708031 186.765711 
L 767.760113 188.87842 
L 769.812196 195.181905 
L 771.864278 202.520433 
L 773.91636 210.197773 
L 775.968443 218.368738 
L 778.020525 227.595259 
L 780.072607 236.47407 
L 782.124689 241.84621 
L 784.176772 247.720076 
L 786.228854 252.7006 
L 788.280936 256.254338 
L 790.333019 256.778801 
L 792.385101 259.46875 
L 794.437183 262.566858 
L 796.489265 264.323303 
L 798.541348 268.94165 
L 800.59343 276.03569 
L 802.645512 280.480022 
L 804.697595 286.516775 
L 806.749677 294.141022 
L 808.801759 303.367543 
L 810.853842 320.378323 
L 812.905924 338.725249 
L 814.958006 356.508662 
L 817.010088 379.50895 
L 819.062171 426.947739 
L 821.114253 470.571104 
L 823.166335 557.817835 
L 827.2705 601.4412 
L 827.271958 704.44 
" clip-path="url(#p676f65e772)" style="fill: none; stroke: #2ca02c; stroke-width: 5; stroke-linecap: square"/>
   </g>
   <g id="line2d_43">
    <path d="M 755.44762 109.058379 
L 757.499702 109.108768 
L 759.551784 109.209666 
L 761.603866 109.285446 
L 763.655949 109.513334 
L 765.708031 109.742051 
L 767.760113 110.125103 
L 769.812196 110.76875 
L 771.864278 111.314547 
L 773.91636 111.99692 
L 775.968443 112.820309 
L 778.020525 113.438248 
L 780.072607 113.844545 
L 782.124689 114.445233 
L 784.176772 114.720179 
L 786.228854 114.968663 
L 788.280936 115.273703 
L 790.333019 115.468592 
L 792.385101 115.776071 
L 794.437183 116.000639 
L 796.489265 116.339001 
L 798.541348 117.021233 
L 800.59343 117.624312 
L 802.645512 118.349882 
L 804.697595 118.877521 
L 806.749677 119.647561 
L 808.801759 120.276469 
L 810.853842 121.216497 
L 812.905924 122.170779 
L 814.958006 123.108262 
L 817.010088 123.836577 
L 819.062171 124.928895 
L 821.114253 125.645928 
L 823.166335 126.470779 
L 825.218418 127.071437 
L 827.2705 127.40763 
L 829.322582 127.576403 
L 831.374665 127.745629 
L 833.426747 128.085453 
L 835.478829 128.461391 
L 837.530911 128.839588 
L 839.582994 129.393781 
L 841.635076 129.847685 
L 843.687158 130.446234 
L 845.739241 130.90782 
L 847.791323 131.516587 
L 849.843405 132.532278 
L 851.895488 133.379035 
L 853.94757 134.387814 
L 855.999652 135.221907 
L 858.051734 136.924008 
L 860.103817 137.633811 
L 862.155899 138.512363 
L 864.207981 139.240413 
L 866.260064 139.812555 
L 868.312146 140.100589 
L 870.364228 140.183127 
L 872.416311 140.348528 
L 874.468393 140.431392 
L 878.572557 140.472865 
L 911.405874 140.555893 
L 913.457956 140.805636 
L 915.510039 141.056375 
L 917.562121 141.687626 
L 919.614203 142.0269 
L 921.666286 142.840083 
L 923.718368 143.882512 
L 925.77045 144.366124 
L 927.822533 145.120912 
L 929.874615 145.749371 
L 931.926697 146.521035 
L 933.978779 147.348537 
L 936.030862 148.469075 
L 938.082944 149.322768 
L 940.135026 150.091452 
L 942.187109 151.608037 
L 944.239191 152.706934 
L 946.291273 153.928027 
L 948.343356 155.330686 
L 950.395438 156.76532 
L 952.44752 159.343419 
L 954.499602 162.618742 
L 956.551685 165.887267 
L 958.603767 169.795951 
L 960.655849 174.175819 
L 962.707932 177.67312 
L 964.760014 180.117513 
L 966.812096 183.971893 
L 968.864179 187.287276 
L 970.916261 190.879419 
L 972.968343 195.878429 
L 975.020425 202.631725 
L 977.072508 210.956037 
L 979.12459 218.655459 
L 981.176672 225.960486 
L 983.228755 232.770931 
L 985.280837 240.004073 
L 987.332919 247.492462 
L 989.385001 251.964507 
L 991.437084 253.946883 
L 993.489166 255.993737 
L 995.541248 258.921484 
L 997.593331 261.992103 
L 999.645413 267.676578 
L 1001.697495 270.888255 
L 1003.749578 275.679116 
L 1005.80166 279.717161 
L 1007.853742 288.229403 
L 1009.905824 296.077643 
L 1011.957907 308.543215 
L 1014.009989 319.659055 
L 1016.062071 330.563948 
L 1018.114154 350.393641 
L 1020.166236 369.280787 
L 1022.218318 394.017006 
L 1024.270401 431.009485 
L 1026.322483 478.974931 
L 1028.374565 532.299802 
L 1032.47873 601.4412 
L 1032.481647 704.44 
" clip-path="url(#p676f65e772)" style="fill: none; stroke: #d62728; stroke-width: 5; stroke-linecap: square"/>
   </g>
   <g id="LineCollection_1">
    <path d="M 412.749876 166.700152 
L 412.749876 109.0332 
" clip-path="url(#p676f65e772)" style="fill: none; stroke: #000000; stroke-width: 1.5"/>
    <path d="M 658.999752 166.700152 
L 658.999752 109.0332 
" clip-path="url(#p676f65e772)" style="fill: none; stroke: #000000; stroke-width: 1.5"/>
    <path d="M 905.249627 166.700152 
L 905.249627 109.0332 
" clip-path="url(#p676f65e772)" style="fill: none; stroke: #000000; stroke-width: 1.5"/>
    <path d="M 1151.499503 166.700152 
L 1151.499503 109.0332 
" clip-path="url(#p676f65e772)" style="fill: none; stroke: #000000; stroke-width: 1.5"/>
   </g>
   <g id="patch_3">
    <path d="M 166.5 626.0616 
L 166.5 84.4128 
" style="fill: none; stroke: #000000; stroke-width: 0.8; stroke-linejoin: miter; stroke-linecap: square"/>
   </g>
   <g id="patch_4">
    <path d="M 1198.8 626.0616 
L 1198.8 84.4128 
" style="fill: none; stroke: #000000; stroke-width: 0.8; stroke-linejoin: miter; stroke-linecap: square"/>
   </g>
   <g id="patch_5">
    <path d="M 166.5 626.0616 
L 1198.8 626.0616 
" style="fill: none; stroke: #000000; stroke-width: 0.8; stroke-linejoin: miter; stroke-linecap: square"/>
   </g>
   <g id="patch_6">
    <path d="M 166.5 84.4128 
L 1198.8 84.4128 
" style="fill: none; stroke: #000000; stroke-width: 0.8; stroke-linejoin: miter; stroke-linecap: square"/>
   </g>
   <g id="text_13">
    <!-- CAN High Priority Message Latency Profile for 10,000 Messages in Burst of Size 4 -->
    <g transform="translate(175.767187 78.4128) scale(0.25 -0.25)">
     <defs>
      <path id="DejaVuSans-41" d="M 2188 4044 
L 1331 1722 
L 3047 1722 
L 2188 4044 
z
M 1831 4666 
L 2547 4666 
L 4325 0 
L 3669 0 
L 3244 1197 
L 1141 1197 
L 716 0 
L 50 0 
L 1831 4666 
z
" transform="scale(0.015625)"/>
      <path id="DejaVuSans-4e" d="M 628 4666 
L 1478 4666 
L 3547 763 
L 3547 4666 
L 4159 4666 
L 4159 0 
L 3309 0 
L 1241 3903 
L 1241 0 
L 628 0 
L 628 4666 
z
" transform="scale(0.015625)"/>
      <path id="DejaVuSans-48" d="M 628 4666 
L 1259 4666 
L 1259 2753 
L 3553 2753 
L 3553 4666 
L 4184 4666 
L 4184 0 
L 3553 0 
L 3553 2222 
L 1259 2222 
L 1259 0 
L 628 0 
L 628 4666 
z
" transform="scale(0.015625)"/>
      <path id="DejaVuSans-68" d="M 3513 2113 
L 3513 0 
L 2938 0 
L 2938 2094 
Q 2938 2591 2744 2837 
Q 2550 3084 2163 3084 
Q 1697 3084 1428 2787 
Q 1159 2491 1159 1978 
L 1159 0 
L 581 0 
L 581 4863 
L 1159 4863 
L 1159 2956 
Q 1366 3272 1645 3428 
Q 1925 3584 2291 3584 
Q 2894 3584 3203 3211 
Q 3513 2838 3513 2113 
z
" transform="scale(0.015625)"/>
      <path id="DejaVuSans-50" d="M 1259 4147 
L 1259 2394 
L 2053 2394 
Q 2494 2394 2734 2622 
Q 2975 2850 2975 3272 
Q 2975 3691 2734 3919 
Q 2494 4147 2053 4147 
L 1259 4147 
z
M 628 4666 
L 2053 4666 
Q 2838 4666 3239 4311 
Q 3641 3956 3641 3272 
Q 3641 2581 3239 2228 
Q 2838 1875 2053 1875 
L 1259 1875 
L 1259 0 
L 628 0 
L 628 4666 
z
" transform="scale(0.015625)"/>
      <path id="DejaVuSans-4c" d="M 628 4666 
L 1259 4666 
L 1259 531 
L 3531 531 
L 3531 0 
L 628 0 
L 628 4666 
z
" transform="scale(0.015625)"/>
      <path id="DejaVuSans-66" d="M 2375 4863 
L 2375 4384 
L 1825 4384 
Q 1516 4384 1395 4259 
Q 1275 4134 1275 3809 
L 1275 3500 
L 2222 3500 
L 2222 3053 
L 1275 3053 
L 1275 0 
L 697 0 
L 697 3053 
L 147 3053 
L 147 3500 
L 697 3500 
L 697 3744 
Q 697 4328 969 4595 
Q 1241 4863 1831 4863 
L 2375 4863 
z
" transform="scale(0.015625)"/>
      <path id="DejaVuSans-2c" d="M 750 794 
L 1409 794 
L 1409 256 
L 897 -744 
L 494 -744 
L 750 256 
L 750 794 
z
" transform="scale(0.015625)"/>
      <path id="DejaVuSans-42" d="M 1259 2228 
L 1259 519 
L 2272 519 
Q 2781 519 3026 730 
Q 3272 941 3272 1375 
Q 3272 1813 3026 2020 
Q 2781 2228 2272 2228 
L 1259 2228 
z
M 1259 4147 
L 1259 2741 
L 2194 2741 
Q 2656 2741 2882 2914 
Q 3109 3088 3109 3444 
Q 3109 3797 2882 3972 
Q 2656 4147 2194 4147 
L 1259 4147 
z
M 628 4666 
L 2241 4666 
Q 2963 4666 3353 4366 
Q 3744 4066 3744 3513 
Q 3744 3084 3544 2831 
Q 3344 2578 2956 2516 
Q 3422 2416 3680 2098 
Q 3938 1781 3938 1306 
Q 3938 681 3513 340 
Q 3088 0 2303 0 
L 628 0 
L 628 4666 
z
" transform="scale(0.015625)"/>
      <path id="DejaVuSans-53" d="M 3425 4513 
L 3425 3897 
Q 3066 4069 2747 4153 
Q 2428 4238 2131 4238 
Q 1616 4238 1336 4038 
Q 1056 3838 1056 3469 
Q 1056 3159 1242 3001 
Q 1428 2844 1947 2747 
L 2328 2669 
Q 3034 2534 3370 2195 
Q 3706 1856 3706 1288 
Q 3706 609 3251 259 
Q 2797 -91 1919 -91 
Q 1588 -91 1214 -16 
Q 841 59 441 206 
L 441 856 
Q 825 641 1194 531 
Q 1563 422 1919 422 
Q 2459 422 2753 634 
Q 3047 847 3047 1241 
Q 3047 1584 2836 1778 
Q 2625 1972 2144 2069 
L 1759 2144 
Q 1053 2284 737 2584 
Q 422 2884 422 3419 
Q 422 4038 858 4394 
Q 1294 4750 2059 4750 
Q 2388 4750 2728 4690 
Q 3069 4631 3425 4513 
z
" transform="scale(0.015625)"/>
      <path id="DejaVuSans-7a" d="M 353 3500 
L 3084 3500 
L 3084 2975 
L 922 459 
L 3084 459 
L 3084 0 
L 275 0 
L 275 525 
L 2438 3041 
L 353 3041 
L 353 3500 
z
" transform="scale(0.015625)"/>
     </defs>
     <use xlink:href="#DejaVuSans-43"/>
     <use xlink:href="#DejaVuSans-41" x="69.824219"/>
     <use xlink:href="#DejaVuSans-4e" x="138.232422"/>
     <use xlink:href="#DejaVuSans-20" x="213.037109"/>
     <use xlink:href="#DejaVuSans-48" x="244.824219"/>
     <use xlink:href="#DejaVuSans-69" x="320.019531"/>
     <use xlink:href="#DejaVuSans-67" x="347.802734"/>
     <use xlink:href="#DejaVuSans-68" x="411.279297"/>
     <use xlink:href="#DejaVuSans-20" x="474.658203"/>
     <use xlink:href="#DejaVuSans-50" x="506.445312"/>
     <use xlink:href="#DejaVuSans-72" x="564.998047"/>
     <use xlink:href="#DejaVuSans-69" x="606.111328"/>
     <use xlink:href="#DejaVuSans-6f" x="633.894531"/>
     <use xlink:href="#DejaVuSans-72" x="695.076172"/>
     <use xlink:href="#DejaVuSans-69" x="736.189453"/>
     <use xlink:href="#DejaVuSans-74" x="763.972656"/>
     <use xlink:href="#DejaVuSans-79" x="803.181641"/>
     <use xlink:href="#DejaVuSans-20" x="862.361328"/>
     <use xlink:href="#DejaVuSans-4d" x="894.148438"/>
     <use xlink:href="#DejaVuSans-65" x="980.427734"/>
     <use xlink:href="#DejaVuSans-73" x="1041.951172"/>
     <use xlink:href="#DejaVuSans-73" x="1094.050781"/>
     <use xlink:href="#DejaVuSans-61" x="1146.150391"/>
     <use xlink:href="#DejaVuSans-67" x="1207.429688"/>
     <use xlink:href="#DejaVuSans-65" x="1270.90625"/>
     <use xlink:href="#DejaVuSans-20" x="1332.429688"/>
     <use xlink:href="#DejaVuSans-4c" x="1364.216797"/>
     <use xlink:href="#DejaVuSans-61" x="1419.929688"/>
     <use xlink:href="#DejaVuSans-74" x="1481.208984"/>
     <use xlink:href="#DejaVuSans-65" x="1520.417969"/>
     <use xlink:href="#DejaVuSans-6e" x="1581.941406"/>
     <use xlink:href="#DejaVuSans-63" x="1645.320312"/>
     <use xlink:href="#DejaVuSans-79" x="1700.300781"/>
     <use xlink:href="#DejaVuSans-20" x="1759.480469"/>
     <use xlink:href="#DejaVuSans-50" x="1791.267578"/>
     <use xlink:href="#DejaVuSans-72" x="1849.820312"/>
     <use xlink:href="#DejaVuSans-6f" x="1888.683594"/>
     <use xlink:href="#DejaVuSans-66" x="1949.865234"/>
     <use xlink:href="#DejaVuSans-69" x="1985.070312"/>
     <use xlink:href="#DejaVuSans-6c" x="2012.853516"/>
     <use xlink:href="#DejaVuSans-65" x="2040.636719"/>
     <use xlink:href="#DejaVuSans-20" x="2102.160156"/>
     <use xlink:href="#DejaVuSans-66" x="2133.947266"/>
     <use xlink:href="#DejaVuSans-6f" x="2169.152344"/>
     <use xlink:href="#DejaVuSans-72" x="2230.333984"/>
     <use xlink:href="#DejaVuSans-20" x="2271.447266"/>
     <use xlink:href="#DejaVuSans-31" x="2303.234375"/>
     <use xlink:href="#DejaVuSans-30" x="2366.857422"/>
     <use xlink:href="#DejaVuSans-2c" x="2430.480469"/>
     <use xlink:href="#DejaVuSans-30" x="2462.267578"/>
     <use xlink:href="#DejaVuSans-30" x="2525.890625"/>
     <use xlink:href="#DejaVuSans-30" x="2589.513672"/>
     <use xlink:href="#DejaVuSans-20" x="2653.136719"/>
     <use xlink:href="#DejaVuSans-4d" x="2684.923828"/>
     <use xlink:href="#DejaVuSans-65" x="2771.203125"/>
     <use xlink:href="#DejaVuSans-73" x="2832.726562"/>
     <use xlink:href="#DejaVuSans-73" x="2884.826172"/>
     <use xlink:href="#DejaVuSans-61" x="2936.925781"/>
     <use xlink:href="#DejaVuSans-67" x="2998.205078"/>
     <use xlink:href="#DejaVuSans-65" x="3061.681641"/>
     <use xlink:href="#DejaVuSans-73" x="3123.205078"/>
     <use xlink:href="#DejaVuSans-20" x="3175.304688"/>
     <use xlink:href="#DejaVuSans-69" x="3207.091797"/>
     <use xlink:href="#DejaVuSans-6e" x="3234.875"/>
     <use xlink:href="#DejaVuSans-20" x="3298.253906"/>
     <use xlink:href="#DejaVuSans-42" x="3330.041016"/>
     <use xlink:href="#DejaVuSans-75" x="3398.644531"/>
     <use xlink:href="#DejaVuSans-72" x="3462.023438"/>
     <use xlink:href="#DejaVuSans-73" x="3503.136719"/>
     <use xlink:href="#DejaVuSans-74" x="3555.236328"/>
     <use xlink:href="#DejaVuSans-20" x="3594.445312"/>
     <use xlink:href="#DejaVuSans-6f" x="3626.232422"/>
     <use xlink:href="#DejaVuSans-66" x="3687.414062"/>
     <use xlink:href="#DejaVuSans-20" x="3722.619141"/>
     <use xlink:href="#DejaVuSans-53" x="3754.40625"/>
     <use xlink:href="#DejaVuSans-69" x="3817.882812"/>
     <use xlink:href="#DejaVuSans-7a" x="3845.666016"/>
     <use xlink:href="#DejaVuSans-65" x="3898.15625"/>
     <use xlink:href="#DejaVuSans-20" x="3959.679688"/>
     <use xlink:href="#DejaVuSans-34" x="3991.466797"/>
    </g>
   </g>
   <g id="legend_1">
    <g id="patch_7">
     <path d="M 179.1 617.0616 
L 387.5625 617.0616 
Q 391.1625 617.0616 391.1625 613.4616 
L 391.1625 509.5791 
Q 391.1625 505.9791 387.5625 505.9791 
L 179.1 505.9791 
Q 175.5 505.9791 175.5 509.5791 
L 175.5 613.4616 
Q 175.5 617.0616 179.1 617.0616 
z
" style="fill: #ffffff; opacity: 0.8; stroke: #cccccc; stroke-linejoin: miter"/>
    </g>
    <g id="line2d_44">
     <path d="M 182.7 520.556288 
L 200.7 520.556288 
L 218.7 520.556288 
" style="fill: none; stroke: #1f77b4; stroke-width: 5; stroke-linecap: square"/>
    </g>
    <g id="text_14">
     <!-- First Message -->
     <g transform="translate(233.1 526.856288) scale(0.18 -0.18)">
      <defs>
       <path id="DejaVuSans-46" d="M 628 4666 
L 3309 4666 
L 3309 4134 
L 1259 4134 
L 1259 2759 
L 3109 2759 
L 3109 2228 
L 1259 2228 
L 1259 0 
L 628 0 
L 628 4666 
z
" transform="scale(0.015625)"/>
      </defs>
      <use xlink:href="#DejaVuSans-46"/>
      <use xlink:href="#DejaVuSans-69" x="50.269531"/>
      <use xlink:href="#DejaVuSans-72" x="78.052734"/>
      <use xlink:href="#DejaVuSans-73" x="119.166016"/>
      <use xlink:href="#DejaVuSans-74" x="171.265625"/>
      <use xlink:href="#DejaVuSans-20" x="210.474609"/>
      <use xlink:href="#DejaVuSans-4d" x="242.261719"/>
      <use xlink:href="#DejaVuSans-65" x="328.541016"/>
      <use xlink:href="#DejaVuSans-73" x="390.064453"/>
      <use xlink:href="#DejaVuSans-73" x="442.164062"/>
      <use xlink:href="#DejaVuSans-61" x="494.263672"/>
      <use xlink:href="#DejaVuSans-67" x="555.542969"/>
      <use xlink:href="#DejaVuSans-65" x="619.019531"/>
     </g>
    </g>
    <g id="line2d_45">
     <path d="M 182.7 546.976913 
L 200.7 546.976913 
L 218.7 546.976913 
" style="fill: none; stroke: #ff7f0e; stroke-width: 5; stroke-linecap: square"/>
    </g>
    <g id="text_15">
     <!-- Second Message -->
     <g transform="translate(233.1 553.276912) scale(0.18 -0.18)">
      <defs>
       <path id="DejaVuSans-64" d="M 2906 2969 
L 2906 4863 
L 3481 4863 
L 3481 0 
L 2906 0 
L 2906 525 
Q 2725 213 2448 61 
Q 2172 -91 1784 -91 
Q 1150 -91 751 415 
Q 353 922 353 1747 
Q 353 2572 751 3078 
Q 1150 3584 1784 3584 
Q 2172 3584 2448 3432 
Q 2725 3281 2906 2969 
z
M 947 1747 
Q 947 1113 1208 752 
Q 1469 391 1925 391 
Q 2381 391 2643 752 
Q 2906 1113 2906 1747 
Q 2906 2381 2643 2742 
Q 2381 3103 1925 3103 
Q 1469 3103 1208 2742 
Q 947 2381 947 1747 
z
" transform="scale(0.015625)"/>
      </defs>
      <use xlink:href="#DejaVuSans-53"/>
      <use xlink:href="#DejaVuSans-65" x="63.476562"/>
      <use xlink:href="#DejaVuSans-63" x="125"/>
      <use xlink:href="#DejaVuSans-6f" x="179.980469"/>
      <use xlink:href="#DejaVuSans-6e" x="241.162109"/>
      <use xlink:href="#DejaVuSans-64" x="304.541016"/>
      <use xlink:href="#DejaVuSans-20" x="368.017578"/>
      <use xlink:href="#DejaVuSans-4d" x="399.804688"/>
      <use xlink:href="#DejaVuSans-65" x="486.083984"/>
      <use xlink:href="#DejaVuSans-73" x="547.607422"/>
      <use xlink:href="#DejaVuSans-73" x="599.707031"/>
      <use xlink:href="#DejaVuSans-61" x="651.806641"/>
      <use xlink:href="#DejaVuSans-67" x="713.085938"/>
      <use xlink:href="#DejaVuSans-65" x="776.5625"/>
     </g>
    </g>
    <g id="line2d_46">
     <path d="M 182.7 573.397537 
L 200.7 573.397537 
L 218.7 573.397537 
" style="fill: none; stroke: #2ca02c; stroke-width: 5; stroke-linecap: square"/>
    </g>
    <g id="text_16">
     <!-- Third Message -->
     <g transform="translate(233.1 579.697537) scale(0.18 -0.18)">
      <defs>
       <path id="DejaVuSans-54" d="M -19 4666 
L 3928 4666 
L 3928 4134 
L 2272 4134 
L 2272 0 
L 1638 0 
L 1638 4134 
L -19 4134 
L -19 4666 
z
" transform="scale(0.015625)"/>
      </defs>
      <use xlink:href="#DejaVuSans-54"/>
      <use xlink:href="#DejaVuSans-68" x="61.083984"/>
      <use xlink:href="#DejaVuSans-69" x="124.462891"/>
      <use xlink:href="#DejaVuSans-72" x="152.246094"/>
      <use xlink:href="#DejaVuSans-64" x="191.609375"/>
      <use xlink:href="#DejaVuSans-20" x="255.085938"/>
      <use xlink:href="#DejaVuSans-4d" x="286.873047"/>
      <use xlink:href="#DejaVuSans-65" x="373.152344"/>
      <use xlink:href="#DejaVuSans-73" x="434.675781"/>
      <use xlink:href="#DejaVuSans-73" x="486.775391"/>
      <use xlink:href="#DejaVuSans-61" x="538.875"/>
      <use xlink:href="#DejaVuSans-67" x="600.154297"/>
      <use xlink:href="#DejaVuSans-65" x="663.630859"/>
     </g>
    </g>
    <g id="line2d_47">
     <path d="M 182.7 599.818162 
L 200.7 599.818162 
L 218.7 599.818162 
" style="fill: none; stroke: #d62728; stroke-width: 5; stroke-linecap: square"/>
    </g>
    <g id="text_17">
     <!-- Fourth Message -->
     <g transform="translate(233.1 606.118162) scale(0.18 -0.18)">
      <use xlink:href="#DejaVuSans-46"/>
      <use xlink:href="#DejaVuSans-6f" x="53.894531"/>
      <use xlink:href="#DejaVuSans-75" x="115.076172"/>
      <use xlink:href="#DejaVuSans-72" x="178.455078"/>
      <use xlink:href="#DejaVuSans-74" x="219.568359"/>
      <use xlink:href="#DejaVuSans-68" x="258.777344"/>
      <use xlink:href="#DejaVuSans-20" x="322.15625"/>
      <use xlink:href="#DejaVuSans-4d" x="353.943359"/>
      <use xlink:href="#DejaVuSans-65" x="440.222656"/>
      <use xlink:href="#DejaVuSans-73" x="501.746094"/>
      <use xlink:href="#DejaVuSans-73" x="553.845703"/>
      <use xlink:href="#DejaVuSans-61" x="605.945312"/>
      <use xlink:href="#DejaVuSans-67" x="667.224609"/>
      <use xlink:href="#DejaVuSans-65" x="730.701172"/>
     </g>
    </g>
   </g>
  </g>
 </g>
 <defs>
  <clipPath id="p676f65e772">
   <rect x="166.5" y="84.4128" width="1032.3" height="541.6488"/>
  </clipPath>
 </defs>
</svg>
