<?xml version="1.0" encoding="UTF-8" standalone="no"?>
<!-- Created with Inkscape (http://www.inkscape.org/) -->

<svg
   width="176.89748mm"
   height="98.55188mm"
   viewBox="0 0 176.89748 98.55188"
   version="1.1"
   id="svg5"
   inkscape:version="1.1.2 (0a00cf5339, 2022-02-04)"
   sodipodi:docname="arbitration.svg"
   xmlns:inkscape="http://www.inkscape.org/namespaces/inkscape"
   xmlns:sodipodi="http://sodipodi.sourceforge.net/DTD/sodipodi-0.dtd"
   xmlns="http://www.w3.org/2000/svg"
   xmlns:svg="http://www.w3.org/2000/svg">
  <sodipodi:namedview
     id="namedview7"
     pagecolor="#ffffff"
     bordercolor="#666666"
     borderopacity="1.0"
     inkscape:pageshadow="2"
     inkscape:pageopacity="0.0"
     inkscape:pagecheckerboard="0"
     inkscape:document-units="mm"
     showgrid="false"
     inkscape:zoom="0.50898195"
     inkscape:cx="393.9236"
     inkscape:cy="500.01773"
     inkscape:window-width="1850"
     inkscape:window-height="1016"
     inkscape:window-x="0"
     inkscape:window-y="0"
     inkscape:window-maximized="1"
     inkscape:current-layer="g142179" />
  <defs
     id="defs2">
    <marker
       style="overflow:visible"
       id="Arrow2-5-5-9-9"
       refX="0"
       refY="0"
       orient="auto-start-reverse"
       inkscape:stockid="Arrow2"
       markerWidth="7.6999998"
       markerHeight="5.5999999"
       viewBox="0 0 7.7 5.6"
       inkscape:isstock="true"
       inkscape:collect="always"
       preserveAspectRatio="xMidYMid">
      <path
         transform="scale(0.7)"
         d="M -2,-4 9,0 -2,4 c 2,-2.33 2,-5.66 0,-8 z"
         style="fill:context-stroke;fill-rule:evenodd;stroke:none"
         id="arrow2L-94-4-4-2" />
    </marker>
  </defs>
  <g
     inkscape:label="Layer 1"
     inkscape:groupmode="layer"
     id="layer1"
     transform="translate(-5.5316105,-117.0876)">
    <text
       xml:space="preserve"
       style="font-size:3.52777px;line-height:1.25;font-family:sans-serif;-inkscape-font-specification:'sans-serif, Normal';stroke-width:0.264583"
       x="34.430176"
       y="197.48213"
       id="text16191"><tspan
         sodipodi:role="line"
         id="tspan16189"
         style="stroke-width:0.264583"
         x="34.430176"
         y="197.48213" /></text>
    <text
       xml:space="preserve"
       style="font-size:3.52777px;line-height:1.25;font-family:sans-serif;-inkscape-font-specification:'sans-serif, Normal';stroke-width:0.264583"
       x="34.51305"
       y="199.31865"
       id="text33003"><tspan
         sodipodi:role="line"
         id="tspan33001"
         style="stroke-width:0.264583"
         x="34.51305"
         y="199.31865" /></text>
    <g
       id="g142179">
      <path
         style="fill:none;stroke:#000000;stroke-width:0.8;stroke-linecap:butt;stroke-linejoin:miter;stroke-miterlimit:4;stroke-dasharray:none;stroke-opacity:1"
         d="M 30.478497,210.65799 H 182.40295"
         id="path272" />
      <path
         style="fill:none;stroke:#000000;stroke-width:0.71792;stroke-linecap:butt;stroke-linejoin:miter;stroke-miterlimit:4;stroke-dasharray:none;stroke-opacity:1"
         d="M 30.478497,210.65799 V 210.55082 117.0876"
         id="path274"
         sodipodi:nodetypes="ccc" />
      <path
         style="fill:none;stroke:#000000;stroke-width:0.8;stroke-linecap:butt;stroke-linejoin:miter;stroke-miterlimit:4;stroke-dasharray:none;stroke-opacity:1"
         d="M 30.526709,172.00577 H 182.42908"
         id="path912" />
      <path
         style="fill:none;stroke:#000000;stroke-width:0px;stroke-linecap:butt;stroke-linejoin:miter;stroke-opacity:1"
         d="m 182.40295,210.65799 v 0"
         id="path916" />
      <g
         id="g12427"
         transform="matrix(0.96270146,0,0,1,1.4438976,0)">
        <rect
           style="fill:#c8b7c4;fill-rule:evenodd;stroke-width:0.239798"
           id="rect1100-6-2-3"
           width="17.087759"
           height="17.932594"
           x="38.711906"
           y="192.72539" />
        <text
           xml:space="preserve"
           style="font-size:3.52777px;line-height:1.25;font-family:sans-serif;-inkscape-font-specification:'sans-serif, Normal';stroke-width:0.264583"
           x="43.145638"
           y="203.03029"
           id="text8819"><tspan
             sodipodi:role="line"
             id="tspan8817"
             style="stroke-width:0.264583"
             x="43.145638"
             y="203.03029">Data</tspan></text>
      </g>
      <g
         id="g47666">
        <rect
           style="fill:#8080ff;fill-rule:evenodd;stroke-width:0.166454"
           id="rect1100"
           width="8.2334099"
           height="17.932594"
           x="30.478497"
           y="192.72539" />
        <text
           xml:space="preserve"
           style="font-size:3.52777px;line-height:1.25;font-family:sans-serif;-inkscape-font-specification:'sans-serif, Normal';stroke-width:0.264583"
           x="33.560963"
           y="198.5954"
           id="text43459"><tspan
             sodipodi:role="line"
             id="tspan43457"
             style="stroke-width:0.264583"
             x="33.560963"
             y="198.5954">5</tspan><tspan
             sodipodi:role="line"
             style="stroke-width:0.264583"
             x="33.560963"
             y="203.00511"
             id="tspan43461">0</tspan><tspan
             sodipodi:role="line"
             style="stroke-width:0.264583"
             x="33.560963"
             y="207.41483"
             id="tspan43463">0</tspan></text>
      </g>
      <g
         id="g47666-1"
         transform="translate(25.321171)">
        <rect
           style="fill:#8080ff;fill-rule:evenodd;stroke-width:0.166454"
           id="rect1100-1"
           width="8.2334099"
           height="17.932594"
           x="30.478497"
           y="192.72539" />
        <text
           xml:space="preserve"
           style="font-size:3.52777px;line-height:1.25;font-family:sans-serif;-inkscape-font-specification:'sans-serif, Normal';stroke-width:0.264583"
           x="33.560963"
           y="198.5954"
           id="text43459-0"><tspan
             sodipodi:role="line"
             id="tspan43457-8"
             style="stroke-width:0.264583"
             x="33.560963"
             y="198.5954">5</tspan><tspan
             sodipodi:role="line"
             style="stroke-width:0.264583"
             x="33.560963"
             y="203.00511"
             id="tspan43461-5">0</tspan><tspan
             sodipodi:role="line"
             style="stroke-width:0.264583"
             x="33.560963"
             y="207.41483"
             id="tspan43463-0">0</tspan></text>
      </g>
      <g
         id="g47666-6"
         transform="translate(50.642346)">
        <rect
           style="fill:#8080ff;fill-rule:evenodd;stroke-width:0.166454"
           id="rect1100-4"
           width="8.2334099"
           height="17.932594"
           x="30.478497"
           y="192.72539" />
        <text
           xml:space="preserve"
           style="font-size:3.52777px;line-height:1.25;font-family:sans-serif;-inkscape-font-specification:'sans-serif, Normal';stroke-width:0.264583"
           x="33.560963"
           y="198.5954"
           id="text43459-6"><tspan
             sodipodi:role="line"
             id="tspan43457-2"
             style="stroke-width:0.264583"
             x="33.560963"
             y="198.5954">5</tspan><tspan
             sodipodi:role="line"
             style="stroke-width:0.264583"
             x="33.560963"
             y="203.00511"
             id="tspan43461-58">0</tspan><tspan
             sodipodi:role="line"
             style="stroke-width:0.264583"
             x="33.560963"
             y="207.41483"
             id="tspan43463-6">0</tspan></text>
      </g>
      <g
         id="g47666-2"
         transform="translate(75.963516)">
        <rect
           style="fill:#8080ff;fill-rule:evenodd;stroke-width:0.166454"
           id="rect1100-8"
           width="8.2334099"
           height="17.932594"
           x="30.478497"
           y="192.72539" />
        <text
           xml:space="preserve"
           style="font-size:3.52777px;line-height:1.25;font-family:sans-serif;-inkscape-font-specification:'sans-serif, Normal';stroke-width:0.264583"
           x="33.560963"
           y="198.5954"
           id="text43459-4"><tspan
             sodipodi:role="line"
             id="tspan43457-7"
             style="stroke-width:0.264583"
             x="33.560963"
             y="198.5954">5</tspan><tspan
             sodipodi:role="line"
             style="stroke-width:0.264583"
             x="33.560963"
             y="203.00511"
             id="tspan43461-2">0</tspan><tspan
             sodipodi:role="line"
             style="stroke-width:0.264583"
             x="33.560963"
             y="207.41483"
             id="tspan43463-4">0</tspan></text>
      </g>
      <g
         id="g47666-0"
         transform="translate(101.28468)">
        <rect
           style="fill:#8080ff;fill-rule:evenodd;stroke-width:0.166454"
           id="rect1100-6"
           width="8.2334099"
           height="17.932594"
           x="30.478497"
           y="192.72539" />
        <text
           xml:space="preserve"
           style="font-size:3.52777px;line-height:1.25;font-family:sans-serif;-inkscape-font-specification:'sans-serif, Normal';stroke-width:0.264583"
           x="33.560963"
           y="198.5954"
           id="text43459-2"><tspan
             sodipodi:role="line"
             id="tspan43457-9"
             style="stroke-width:0.264583"
             x="33.560963"
             y="198.5954">5</tspan><tspan
             sodipodi:role="line"
             style="stroke-width:0.264583"
             x="33.560963"
             y="203.00511"
             id="tspan43461-9">0</tspan><tspan
             sodipodi:role="line"
             style="stroke-width:0.264583"
             x="33.560963"
             y="207.41483"
             id="tspan43463-08">0</tspan></text>
      </g>
      <g
         id="g47666-0-9"
         transform="translate(126.60585)">
        <rect
           style="fill:#8080ff;fill-rule:evenodd;stroke-width:0.166454"
           id="rect1100-6-1"
           width="8.2334099"
           height="17.932594"
           x="30.478497"
           y="192.72539" />
        <text
           xml:space="preserve"
           style="font-size:3.52777px;line-height:1.25;font-family:sans-serif;-inkscape-font-specification:'sans-serif, Normal';stroke-width:0.264583"
           x="33.560963"
           y="198.5954"
           id="text43459-2-0"><tspan
             sodipodi:role="line"
             id="tspan43457-9-7"
             style="stroke-width:0.264583"
             x="33.560963"
             y="198.5954">5</tspan><tspan
             sodipodi:role="line"
             style="stroke-width:0.264583"
             x="33.560963"
             y="203.00511"
             id="tspan43461-9-5">0</tspan><tspan
             sodipodi:role="line"
             style="stroke-width:0.264583"
             x="33.560963"
             y="207.41483"
             id="tspan43463-08-8">0</tspan></text>
      </g>
      <path
         style="fill:none;stroke:#000000;stroke-width:0.4;stroke-linecap:butt;stroke-linejoin:miter;stroke-miterlimit:4;stroke-dasharray:0.4, 0.8;stroke-dashoffset:0;stroke-opacity:1"
         d="m 55.799667,210.65799 v -86.263"
         id="path57136" />
      <path
         style="fill:none;stroke:#000000;stroke-width:0.4;stroke-linecap:butt;stroke-linejoin:miter;stroke-miterlimit:4;stroke-dasharray:0.4, 0.8;stroke-dashoffset:0;stroke-opacity:1"
         d="M 81.120843,210.65799 V 124.395"
         id="path57136-4" />
      <path
         style="fill:none;stroke:#000000;stroke-width:0.4;stroke-linecap:butt;stroke-linejoin:miter;stroke-miterlimit:4;stroke-dasharray:0.4, 0.8;stroke-dashoffset:0;stroke-opacity:1"
         d="m 106.44201,210.65799 v -86.263"
         id="path57136-2" />
      <path
         style="fill:none;stroke:#000000;stroke-width:0.4;stroke-linecap:butt;stroke-linejoin:miter;stroke-miterlimit:4;stroke-dasharray:0.4, 0.8;stroke-dashoffset:0;stroke-opacity:1"
         d="m 131.76318,210.65799 v -86.263"
         id="path57136-22" />
      <path
         style="fill:none;stroke:#000000;stroke-width:0.4;stroke-linecap:butt;stroke-linejoin:miter;stroke-miterlimit:4;stroke-dasharray:0.4, 0.8;stroke-dashoffset:0;stroke-opacity:1"
         d="m 157.08435,210.65799 v -86.263"
         id="path57136-0" />
      <text
         xml:space="preserve"
         style="font-size:3.52777px;line-height:1.25;font-family:sans-serif;-inkscape-font-specification:'sans-serif, Normal';stroke-width:0.264583"
         x="53.208256"
         y="119.76723"
         id="text64806"><tspan
           sodipodi:role="line"
           id="tspan64804"
           style="stroke-width:0.264583"
           x="53.208256"
           y="119.76723">next</tspan><tspan
           sodipodi:role="line"
           style="stroke-width:0.264583"
           x="53.208256"
           y="124.17694"
           id="tspan64808">arbitration</tspan></text>
      <g
         id="g85926"
         transform="matrix(2.0340626,0,0,2.0340626,-43.091066,-173.96991)">
        <g
           id="g86000">
          <g
             id="g55775"
             transform="matrix(0.49162696,0,0,0.49162696,21.18473,85.528297)">
            <g
               id="g58323">
              <rect
                 style="fill:#ff5599;fill-rule:evenodd;stroke-width:0.166454"
                 id="rect1100-3"
                 width="8.2334108"
                 height="17.932594"
                 x="30.526709"
                 y="154.07318" />
              <text
                 xml:space="preserve"
                 style="font-size:3.52777px;line-height:1.25;font-family:sans-serif;-inkscape-font-specification:'sans-serif, Normal';stroke-width:0.264583"
                 x="33.678978"
                 y="159.86913"
                 id="text54158"><tspan
                   sodipodi:role="line"
                   style="stroke-width:0.264583"
                   x="33.678978"
                   y="159.86913"
                   id="tspan54162">7</tspan><tspan
                   sodipodi:role="line"
                   style="stroke-width:0.264583"
                   x="33.678978"
                   y="164.27884"
                   id="tspan54168">0</tspan><tspan
                   sodipodi:role="line"
                   style="stroke-width:0.264583"
                   x="33.678978"
                   y="168.68855"
                   id="tspan54170">0</tspan></text>
            </g>
          </g>
          <path
             style="fill:none;stroke:#000000;stroke-width:0.282724px;stroke-linecap:butt;stroke-linejoin:miter;stroke-opacity:1"
             d="m 39.509721,164.3194 2.50382,2.50382"
             id="path85840" />
        </g>
        <path
           style="fill:none;stroke:#000000;stroke-width:0.252444px;stroke-linecap:butt;stroke-linejoin:miter;stroke-opacity:1"
           d="m 42.038034,164.33043 -2.497131,2.49713"
           id="path85842" />
      </g>
      <g
         id="g85926-4"
         transform="matrix(2.0340626,0,0,2.0340626,-17.769895,-173.96991)">
        <g
           id="g86000-3">
          <g
             id="g55775-14"
             transform="matrix(0.49162696,0,0,0.49162696,21.18473,85.528297)">
            <g
               id="g58323-6">
              <rect
                 style="fill:#ff5599;fill-rule:evenodd;stroke-width:0.166454"
                 id="rect1100-3-9"
                 width="8.2334108"
                 height="17.932594"
                 x="30.526709"
                 y="154.07318" />
              <text
                 xml:space="preserve"
                 style="font-size:3.52777px;line-height:1.25;font-family:sans-serif;-inkscape-font-specification:'sans-serif, Normal';stroke-width:0.264583"
                 x="33.678978"
                 y="159.86913"
                 id="text54158-4"><tspan
                   sodipodi:role="line"
                   style="stroke-width:0.264583"
                   x="33.678978"
                   y="159.86913"
                   id="tspan54162-2">7</tspan><tspan
                   sodipodi:role="line"
                   style="stroke-width:0.264583"
                   x="33.678978"
                   y="164.27884"
                   id="tspan54168-2">0</tspan><tspan
                   sodipodi:role="line"
                   style="stroke-width:0.264583"
                   x="33.678978"
                   y="168.68855"
                   id="tspan54170-6">0</tspan></text>
            </g>
          </g>
          <path
             style="fill:none;stroke:#000000;stroke-width:0.282724px;stroke-linecap:butt;stroke-linejoin:miter;stroke-opacity:1"
             d="m 39.509721,164.3194 2.50382,2.50382"
             id="path85840-4" />
        </g>
        <path
           style="fill:none;stroke:#000000;stroke-width:0.252444px;stroke-linecap:butt;stroke-linejoin:miter;stroke-opacity:1"
           d="m 42.038034,164.33043 -2.497131,2.49713"
           id="path85842-1" />
      </g>
      <g
         id="g85926-2"
         transform="matrix(2.0340626,0,0,2.0340626,7.5512776,-173.96991)">
        <g
           id="g86000-8">
          <g
             id="g55775-8"
             transform="matrix(0.49162696,0,0,0.49162696,21.18473,85.528297)">
            <g
               id="g58323-9">
              <rect
                 style="fill:#ff5599;fill-rule:evenodd;stroke-width:0.166454"
                 id="rect1100-3-2"
                 width="8.2334108"
                 height="17.932594"
                 x="30.526709"
                 y="154.07318" />
              <text
                 xml:space="preserve"
                 style="font-size:3.52777px;line-height:1.25;font-family:sans-serif;-inkscape-font-specification:'sans-serif, Normal';stroke-width:0.264583"
                 x="33.678978"
                 y="159.86913"
                 id="text54158-8"><tspan
                   sodipodi:role="line"
                   style="stroke-width:0.264583"
                   x="33.678978"
                   y="159.86913"
                   id="tspan54162-8">7</tspan><tspan
                   sodipodi:role="line"
                   style="stroke-width:0.264583"
                   x="33.678978"
                   y="164.27884"
                   id="tspan54168-8">0</tspan><tspan
                   sodipodi:role="line"
                   style="stroke-width:0.264583"
                   x="33.678978"
                   y="168.68855"
                   id="tspan54170-68">0</tspan></text>
            </g>
          </g>
          <path
             style="fill:none;stroke:#000000;stroke-width:0.282724px;stroke-linecap:butt;stroke-linejoin:miter;stroke-opacity:1"
             d="m 39.509721,164.3194 2.50382,2.50382"
             id="path85840-3" />
        </g>
        <path
           style="fill:none;stroke:#000000;stroke-width:0.252444px;stroke-linecap:butt;stroke-linejoin:miter;stroke-opacity:1"
           d="m 42.038034,164.33043 -2.497131,2.49713"
           id="path85842-8" />
      </g>
      <g
         id="g85926-3"
         transform="matrix(2.0340626,0,0,2.0340626,32.87245,-173.9699)">
        <g
           id="g86000-33">
          <g
             id="g55775-80"
             transform="matrix(0.49162696,0,0,0.49162696,21.18473,85.528297)">
            <g
               id="g58323-4">
              <rect
                 style="fill:#ff5599;fill-rule:evenodd;stroke-width:0.166454"
                 id="rect1100-3-7"
                 width="8.2334108"
                 height="17.932594"
                 x="30.526709"
                 y="154.07318" />
              <text
                 xml:space="preserve"
                 style="font-size:3.52777px;line-height:1.25;font-family:sans-serif;-inkscape-font-specification:'sans-serif, Normal';stroke-width:0.264583"
                 x="33.678978"
                 y="159.86913"
                 id="text54158-6"><tspan
                   sodipodi:role="line"
                   style="stroke-width:0.264583"
                   x="33.678978"
                   y="159.86913"
                   id="tspan54162-89">7</tspan><tspan
                   sodipodi:role="line"
                   style="stroke-width:0.264583"
                   x="33.678978"
                   y="164.27884"
                   id="tspan54168-0">0</tspan><tspan
                   sodipodi:role="line"
                   style="stroke-width:0.264583"
                   x="33.678978"
                   y="168.68855"
                   id="tspan54170-687">0</tspan></text>
            </g>
          </g>
          <path
             style="fill:none;stroke:#000000;stroke-width:0.282724px;stroke-linecap:butt;stroke-linejoin:miter;stroke-opacity:1"
             d="m 39.509721,164.3194 2.50382,2.50382"
             id="path85840-9" />
        </g>
        <path
           style="fill:none;stroke:#000000;stroke-width:0.252444px;stroke-linecap:butt;stroke-linejoin:miter;stroke-opacity:1"
           d="m 42.038034,164.33043 -2.497131,2.49713"
           id="path85842-0" />
      </g>
      <g
         id="g85926-6"
         transform="matrix(2.0340626,0,0,2.0340626,58.193629,-173.96991)">
        <g
           id="g86000-0">
          <g
             id="g55775-4"
             transform="matrix(0.49162696,0,0,0.49162696,21.18473,85.528297)">
            <g
               id="g58323-1">
              <rect
                 style="fill:#ff5599;fill-rule:evenodd;stroke-width:0.166454"
                 id="rect1100-3-0"
                 width="8.2334108"
                 height="17.932594"
                 x="30.526709"
                 y="154.07318" />
              <text
                 xml:space="preserve"
                 style="font-size:3.52777px;line-height:1.25;font-family:sans-serif;-inkscape-font-specification:'sans-serif, Normal';stroke-width:0.264583"
                 x="33.678978"
                 y="159.86913"
                 id="text54158-48"><tspan
                   sodipodi:role="line"
                   style="stroke-width:0.264583"
                   x="33.678978"
                   y="159.86913"
                   id="tspan54162-7">7</tspan><tspan
                   sodipodi:role="line"
                   style="stroke-width:0.264583"
                   x="33.678978"
                   y="164.27884"
                   id="tspan54168-08">0</tspan><tspan
                   sodipodi:role="line"
                   style="stroke-width:0.264583"
                   x="33.678978"
                   y="168.68855"
                   id="tspan54170-62">0</tspan></text>
            </g>
          </g>
          <path
             style="fill:none;stroke:#000000;stroke-width:0.282724px;stroke-linecap:butt;stroke-linejoin:miter;stroke-opacity:1"
             d="m 39.509721,164.3194 2.50382,2.50382"
             id="path85840-47" />
        </g>
        <path
           style="fill:none;stroke:#000000;stroke-width:0.252444px;stroke-linecap:butt;stroke-linejoin:miter;stroke-opacity:1"
           d="m 42.038034,164.33043 -2.497131,2.49713"
           id="path85842-9" />
      </g>
      <g
         id="g85926-39"
         transform="matrix(2.0340626,0,0,2.0340626,83.514801,-173.96991)">
        <g
           id="g86000-2">
          <g
             id="g55775-83"
             transform="matrix(0.49162696,0,0,0.49162696,21.18473,85.528297)">
            <g
               id="g58323-0">
              <rect
                 style="fill:#ff5599;fill-rule:evenodd;stroke-width:0.166454"
                 id="rect1100-3-1"
                 width="8.2334108"
                 height="17.932594"
                 x="30.526709"
                 y="154.07318" />
              <text
                 xml:space="preserve"
                 style="font-size:3.52777px;line-height:1.25;font-family:sans-serif;-inkscape-font-specification:'sans-serif, Normal';stroke-width:0.264583"
                 x="33.678978"
                 y="159.86913"
                 id="text54158-7"><tspan
                   sodipodi:role="line"
                   style="stroke-width:0.264583"
                   x="33.678978"
                   y="159.86913"
                   id="tspan54162-891">7</tspan><tspan
                   sodipodi:role="line"
                   style="stroke-width:0.264583"
                   x="33.678978"
                   y="164.27884"
                   id="tspan54168-5">0</tspan><tspan
                   sodipodi:role="line"
                   style="stroke-width:0.264583"
                   x="33.678978"
                   y="168.68855"
                   id="tspan54170-4">0</tspan></text>
            </g>
          </g>
          <path
             style="fill:none;stroke:#000000;stroke-width:0.282724px;stroke-linecap:butt;stroke-linejoin:miter;stroke-opacity:1"
             d="m 39.509721,164.3194 2.50382,2.50382"
             id="path85840-92" />
        </g>
        <path
           style="fill:none;stroke:#000000;stroke-width:0.252444px;stroke-linecap:butt;stroke-linejoin:miter;stroke-opacity:1"
           d="m 42.038034,164.33043 -2.497131,2.49713"
           id="path85842-5" />
      </g>
      <path
         style="display:inline;fill:none;stroke:#000000;stroke-width:0.75;stroke-linecap:butt;stroke-linejoin:miter;stroke-dasharray:none;stroke-opacity:1;marker-end:url(#Arrow2-5-5-9-9)"
         d="m 25.699614,147.76598 c 10.309404,-0.22677 14.043719,4 14.043719,10"
         id="path3330-9-05-6-2"
         sodipodi:nodetypes="cc" />
      <text
         xml:space="preserve"
         style="font-size:3.52777px;line-height:1.25;font-family:sans-serif;-inkscape-font-specification:'sans-serif, Normal';stroke-width:0.264583"
         x="23.904264"
         y="143.04482"
         id="text95232"><tspan
           sodipodi:role="line"
           id="tspan95230"
           style="text-align:end;text-anchor:end;stroke-width:0.264583"
           x="23.904264"
           y="143.04482">lost</tspan><tspan
           sodipodi:role="line"
           style="text-align:end;text-anchor:end;stroke-width:0.264583"
           x="23.904264"
           y="147.45453"
           id="tspan100976">arbitration</tspan></text>
      <text
         xml:space="preserve"
         style="font-size:3.52777px;line-height:1.25;font-family:sans-serif;-inkscape-font-specification:'sans-serif, Normal';stroke-width:0.264583"
         x="7.5263963"
         y="211.20682"
         id="text125378"><tspan
           sodipodi:role="line"
           id="tspan125376"
           style="stroke-width:0.264583"
           x="7.5263963"
           y="211.20682">Controller B</tspan></text>
      <text
         xml:space="preserve"
         style="font-size:3.52777px;line-height:1.25;font-family:sans-serif;-inkscape-font-specification:'sans-serif, Normal';stroke-width:0.264583"
         x="7.4894238"
         y="173.28448"
         id="text125378-7"><tspan
           sodipodi:role="line"
           id="tspan125376-4"
           style="stroke-width:0.264583"
           x="7.4894238"
           y="173.28448">Controller A</tspan></text>
      <text
         xml:space="preserve"
         style="font-size:3.52777px;line-height:1.25;font-family:sans-serif;-inkscape-font-specification:'sans-serif, Normal';stroke-width:0.264583"
         x="170.12195"
         y="215.58952"
         id="text140761"><tspan
           sodipodi:role="line"
           id="tspan140759"
           style="stroke-width:0.264583"
           x="170.12195"
           y="215.58952">time</tspan></text>
      <g
         id="g12427-9"
         transform="matrix(0.96270146,0,0,1,26.765069,0)">
        <rect
           style="fill:#c8b7c4;fill-rule:evenodd;stroke-width:0.239798"
           id="rect1100-6-2-3-2"
           width="17.087759"
           height="17.932594"
           x="38.711906"
           y="192.72539" />
        <text
           xml:space="preserve"
           style="font-size:3.52777px;line-height:1.25;font-family:sans-serif;-inkscape-font-specification:'sans-serif, Normal';stroke-width:0.264583"
           x="43.145638"
           y="203.03029"
           id="text8819-0"><tspan
             sodipodi:role="line"
             id="tspan8817-2"
             style="stroke-width:0.264583"
             x="43.145638"
             y="203.03029">Data</tspan></text>
      </g>
      <g
         id="g12427-3"
         transform="matrix(0.96270146,0,0,1,52.086244,0)">
        <rect
           style="fill:#c8b7c4;fill-rule:evenodd;stroke-width:0.239798"
           id="rect1100-6-2-3-7"
           width="17.087759"
           height="17.932594"
           x="38.711906"
           y="192.72539" />
        <text
           xml:space="preserve"
           style="font-size:3.52777px;line-height:1.25;font-family:sans-serif;-inkscape-font-specification:'sans-serif, Normal';stroke-width:0.264583"
           x="43.145638"
           y="203.03029"
           id="text8819-5"><tspan
             sodipodi:role="line"
             id="tspan8817-9"
             style="stroke-width:0.264583"
             x="43.145638"
             y="203.03029">Data</tspan></text>
      </g>
      <g
         id="g12427-2"
         transform="matrix(0.96270146,0,0,1,77.407414,0)">
        <rect
           style="fill:#c8b7c4;fill-rule:evenodd;stroke-width:0.239798"
           id="rect1100-6-2-3-28"
           width="17.087759"
           height="17.932594"
           x="38.711906"
           y="192.72539" />
        <text
           xml:space="preserve"
           style="font-size:3.52777px;line-height:1.25;font-family:sans-serif;-inkscape-font-specification:'sans-serif, Normal';stroke-width:0.264583"
           x="43.145638"
           y="203.03029"
           id="text8819-9"><tspan
             sodipodi:role="line"
             id="tspan8817-7"
             style="stroke-width:0.264583"
             x="43.145638"
             y="203.03029">Data</tspan></text>
      </g>
      <g
         id="g12427-36"
         transform="matrix(0.96270146,0,0,1,102.72858,0)">
        <rect
           style="fill:#c8b7c4;fill-rule:evenodd;stroke-width:0.239798"
           id="rect1100-6-2-3-1"
           width="17.087759"
           height="17.932594"
           x="38.711906"
           y="192.72539" />
        <text
           xml:space="preserve"
           style="font-size:3.52777px;line-height:1.25;font-family:sans-serif;-inkscape-font-specification:'sans-serif, Normal';stroke-width:0.264583"
           x="43.145638"
           y="203.03029"
           id="text8819-2"><tspan
             sodipodi:role="line"
             id="tspan8817-93"
             style="stroke-width:0.264583"
             x="43.145638"
             y="203.03029">Data</tspan></text>
      </g>
    </g>
  </g>
</svg>
